[gd_scene load_steps=4 format=2]

[ext_resource path="res://Sounds/charging-laser.wav" type="AudioStream" id=1]
[ext_resource path="res://Scripts/BallSpawner.gd" type="Script" id=2]

[sub_resource type="ParticlesMaterial" id=16]
emission_shape = 1
emission_sphere_radius = 48.0
flag_disable_z = true
gravity = Vector3( 0, 0, 0 )
orbit_velocity = 0.0
orbit_velocity_random = 0.0
radial_accel = -100.0

[node name="BallSpawner" type="Node2D"]
script = ExtResource( 2 )

[node name="SpawnTimer" type="Timer" parent="."]
one_shot = true

[node name="CooldownTimer" type="Timer" parent="."]
wait_time = 5.0
one_shot = true

[node name="Particles2D" type="Particles2D" parent="."]
amount = 64
process_material = SubResource( 16 )

[node name="AudioStreamPlayer" type="AudioStreamPlayer" parent="."]
stream = ExtResource( 1 )
[connection signal="timeout" from="SpawnTimer" to="." method="emit_please_spawn_ball"]
[connection signal="timeout" from="CooldownTimer" to="." method="cooldown"]
